…
``` r
q3_tidy |>
  group_by(week, subject_id) |> 
  summarise(n = n())
```

    ## # A tibble: 80 × 3
    ## # Groups:   week [8]
    ##    week  subject_id     n
    ##    <chr> <chr>      <int>
    ##  1 1     01             2
    ##  2 1     02             2
    ##  3 1     03             2
    ##  4 1     04             2
    ##  5 1     05             2
    ##  6 1     06             2
    ##  7 1     07             2
    ##  8 1     08             2
    ##  9 1     09             2
    ## 10 1     10             2
    ## # ℹ 70 more rows
…
